<svg width="20" height="16" viewBox="0 0 20 16" fill="none" xmlns="http://www.w3.org/2000/svg">
<path d="M0.527344 2.03906C0.449219 1.94792 0.390625 1.85677 0.351562 1.76562C0.3125 1.66146 0.292969 1.54427 0.292969 1.41406C0.292969 1.29688 0.3125 1.1862 0.351562 1.08203C0.390625 0.977865 0.449219 0.886719 0.527344 0.808594C0.605469 0.730469 0.696615 0.671875 0.800781 0.632812C0.904948 0.59375 1.01562 0.574219 1.13281 0.574219H18.9648C19.082 0.574219 19.1927 0.59375 19.2969 0.632812C19.401 0.671875 19.4922 0.730469 19.5703 0.808594C19.6484 0.886719 19.707 0.977865 19.7461 1.08203C19.7852 1.1862 19.8047 1.29688 19.8047 1.41406C19.8047 1.54427 19.7852 1.66146 19.7461 1.76562C19.707 1.85677 19.6484 1.94792 19.5703 2.03906C19.4922 2.11719 19.401 2.17578 19.2969 2.21484C19.1927 2.25391 19.082 2.27344 18.9648 2.27344H1.13281C1.01562 2.27344 0.904948 2.25391 0.800781 2.21484C0.696615 2.17578 0.605469 2.11719 0.527344 2.03906ZM19.5703 7.60547C19.6484 7.68359 19.707 7.77474 19.7461 7.87891C19.7852 7.98307 19.8047 8.09375 19.8047 8.21094C19.8047 8.32812 19.7852 8.4388 19.7461 8.54297C19.707 8.64714 19.6484 8.73828 19.5703 8.81641C19.4922 8.89453 19.401 8.95312 19.2969 8.99219C19.1927 9.03125 19.082 9.05078 18.9648 9.05078H1.13281C1.01562 9.05078 0.904948 9.03125 0.800781 8.99219C0.696615 8.95312 0.605469 8.89453 0.527344 8.81641C0.449219 8.73828 0.390625 8.64714 0.351562 8.54297C0.3125 8.4388 0.292969 8.32812 0.292969 8.21094C0.292969 8.09375 0.3125 7.98307 0.351562 7.87891C0.390625 7.77474 0.449219 7.68359 0.527344 7.60547C0.605469 7.52734 0.696615 7.46875 0.800781 7.42969C0.904948 7.39062 1.01562 7.37109 1.13281 7.37109H18.9648C19.082 7.37109 19.1927 7.39062 19.2969 7.42969C19.401 7.46875 19.4922 7.52734 19.5703 7.60547ZM19.5703 14.3828C19.6484 14.4609 19.707 14.5521 19.7461 14.6562C19.7852 14.7604 19.8047 14.8711 19.8047 14.9883C19.8047 15.1185 19.7852 15.2357 19.7461 15.3398C19.707 15.431 19.6484 15.5221 19.5703 15.6133C19.4922 15.6914 19.401 15.75 19.2969 15.7891C19.1927 15.8281 19.082 15.8477 18.9648 15.8477H1.13281C1.01562 15.8477 0.904948 15.8281 0.800781 15.7891C0.696615 15.75 0.605469 15.6914 0.527344 15.6133C0.449219 15.5221 0.390625 15.431 0.351562 15.3398C0.3125 15.2357 0.292969 15.1185 0.292969 14.9883C0.292969 14.8711 0.3125 14.7604 0.351562 14.6562C0.390625 14.5521 0.449219 14.4609 0.527344 14.3828C0.605469 14.3047 0.696615 14.2461 0.800781 14.207C0.904948 14.168 1.01562 14.1484 1.13281 14.1484H18.9648C19.082 14.1484 19.1927 14.168 19.2969 14.207C19.401 14.2461 19.4922 14.3047 19.5703 14.3828Z" fill="white"/>
</svg>
