<svg width="10" height="10" viewBox="0 0 10 10" fill="none" xmlns="http://www.w3.org/2000/svg">
<path d="M5 5.674C5.56933 5.674 6.204 5.76267 6.904 5.94C7.688 6.136 8.32267 6.39733 8.808 6.724C9.38667 7.116 9.676 7.55 9.676 8.026V9.776H0.324V8.026C0.324 7.55 0.613333 7.116 1.192 6.724C1.67733 6.39733 2.312 6.136 3.096 5.94C3.796 5.76267 4.43067 5.674 5 5.674ZM5 0.424C5.42 0.424 5.80733 0.531333 6.162 0.746C6.51667 0.951333 6.79667 1.236 7.002 1.6C7.21667 1.964 7.324 2.356 7.324 2.776C7.324 3.196 7.21667 3.58333 7.002 3.938C6.79667 4.29267 6.51667 4.57733 6.162 4.792C5.80733 4.99733 5.42 5.1 5 5.1C4.58 5.1 4.19267 4.99733 3.838 4.792C3.48333 4.57733 3.19867 4.29267 2.984 3.938C2.77867 3.58333 2.676 3.196 2.676 2.776C2.676 2.356 2.77867 1.964 2.984 1.6C3.19867 1.236 3.48333 0.951333 3.838 0.746C4.19267 0.531333 4.58 0.424 5 0.424ZM5 6.794C4.468 6.794 3.90333 6.87333 3.306 7.032C2.79267 7.172 2.354 7.34 1.99 7.536C1.626 7.732 1.444 7.89533 1.444 8.026V8.656H8.556V8.026C8.556 7.89533 8.374 7.732 8.01 7.536C7.646 7.34 7.20733 7.172 6.694 7.032C6.09667 6.87333 5.532 6.794 5 6.794ZM5 1.544C4.65467 1.544 4.36067 1.66533 4.118 1.908C3.88467 2.14133 3.768 2.43067 3.768 2.776C3.768 3.12133 3.88467 3.41067 4.118 3.644C4.36067 3.868 4.65467 3.98 5 3.98C5.34533 3.98 5.63467 3.868 5.868 3.644C6.11067 3.41067 6.232 3.12133 6.232 2.776C6.232 2.43067 6.11067 2.14133 5.868 1.908C5.63467 1.66533 5.34533 1.544 5 1.544Z" fill="#F4982B"/>
</svg>
