<svg width="14" height="15" viewBox="0 0 14 15" fill="none" xmlns="http://www.w3.org/2000/svg">
<path d="M1.59961 8.3125H9.17383C9.30143 8.3125 9.40625 8.27148 9.48828 8.18945C9.57031 8.09831 9.61133 7.99349 9.61133 7.875C9.61133 7.7474 9.57031 7.64258 9.48828 7.56055C9.40625 7.47852 9.30143 7.4375 9.17383 7.4375H1.62695L3.21289 5.85156C3.29492 5.76953 3.33594 5.66927 3.33594 5.55078C3.33594 5.42318 3.29492 5.31836 3.21289 5.23633C3.12174 5.14518 3.01693 5.09961 2.89844 5.09961C2.77995 5.09961 2.67513 5.14518 2.58398 5.23633L0 7.88867L2.58398 10.541C2.62956 10.5775 2.67969 10.6094 2.73438 10.6367C2.78906 10.6549 2.84375 10.6641 2.89844 10.6641C2.95312 10.6641 3.00781 10.6549 3.0625 10.6367C3.11719 10.6094 3.16732 10.5775 3.21289 10.541C3.29492 10.4499 3.33594 10.3451 3.33594 10.2266C3.33594 10.1081 3.29492 10.0033 3.21289 9.91211L1.59961 8.3125ZM13.125 0.875H5.6875C5.44141 0.875 5.23177 0.961589 5.05859 1.13477C4.89453 1.29883 4.8125 1.50391 4.8125 1.75V5.6875H5.6875V2.2832C5.6875 2.13737 5.73763 2.01432 5.83789 1.91406C5.94727 1.80469 6.07487 1.75 6.2207 1.75H12.5781C12.724 1.75 12.847 1.80469 12.9473 1.91406C13.0475 2.01432 13.0977 2.13737 13.0977 2.2832L13.1113 13.4668C13.1113 13.6126 13.0612 13.7402 12.9609 13.8496C12.8607 13.9499 12.7376 14 12.5918 14H6.2207C6.07487 14 5.94727 13.9499 5.83789 13.8496C5.73763 13.7402 5.6875 13.6126 5.6875 13.4668V10.0488H4.8125V14C4.8125 14.2461 4.89453 14.4512 5.05859 14.6152C5.23177 14.7884 5.44141 14.875 5.6875 14.875H13.125C13.362 14.875 13.5671 14.7884 13.7402 14.6152C13.9134 14.4512 14 14.2461 14 14V1.75C14 1.50391 13.9134 1.29883 13.7402 1.13477C13.5671 0.961589 13.362 0.875 13.125 0.875Z" fill="#F4982B"/>
</svg>
